#line 1 "ConfigFuses.c"
#line 1 "ConfigFuses.c"

#line 45 "ConfigFuses.c"
 

 
#line 1 "../../Microchip/Include/Compiler.h"

#line 42 "../../Microchip/Include/Compiler.h"
 

#line 45 "../../Microchip/Include/Compiler.h"





#line 51 "../../Microchip/Include/Compiler.h"
	
	
#line 1 "C:/Program Files (x86)/Microchip/mplabc18/v3.46/h/p18cxxx.h"

#line 3 "C:/Program Files (x86)/Microchip/mplabc18/v3.46/h/p18cxxx.h"

#line 5 "C:/Program Files (x86)/Microchip/mplabc18/v3.46/h/p18cxxx.h"
#line 7 "C:/Program Files (x86)/Microchip/mplabc18/v3.46/h/p18cxxx.h"
#line 9 "C:/Program Files (x86)/Microchip/mplabc18/v3.46/h/p18cxxx.h"
#line 11 "C:/Program Files (x86)/Microchip/mplabc18/v3.46/h/p18cxxx.h"
#line 13 "C:/Program Files (x86)/Microchip/mplabc18/v3.46/h/p18cxxx.h"
#line 15 "C:/Program Files (x86)/Microchip/mplabc18/v3.46/h/p18cxxx.h"
#line 17 "C:/Program Files (x86)/Microchip/mplabc18/v3.46/h/p18cxxx.h"
#line 19 "C:/Program Files (x86)/Microchip/mplabc18/v3.46/h/p18cxxx.h"
#line 21 "C:/Program Files (x86)/Microchip/mplabc18/v3.46/h/p18cxxx.h"
#line 23 "C:/Program Files (x86)/Microchip/mplabc18/v3.46/h/p18cxxx.h"
#line 25 "C:/Program Files (x86)/Microchip/mplabc18/v3.46/h/p18cxxx.h"
#line 27 "C:/Program Files (x86)/Microchip/mplabc18/v3.46/h/p18cxxx.h"
#line 29 "C:/Program Files (x86)/Microchip/mplabc18/v3.46/h/p18cxxx.h"
#line 31 "C:/Program Files (x86)/Microchip/mplabc18/v3.46/h/p18cxxx.h"
#line 33 "C:/Program Files (x86)/Microchip/mplabc18/v3.46/h/p18cxxx.h"
#line 35 "C:/Program Files (x86)/Microchip/mplabc18/v3.46/h/p18cxxx.h"
#line 37 "C:/Program Files (x86)/Microchip/mplabc18/v3.46/h/p18cxxx.h"
#line 39 "C:/Program Files (x86)/Microchip/mplabc18/v3.46/h/p18cxxx.h"
#line 41 "C:/Program Files (x86)/Microchip/mplabc18/v3.46/h/p18cxxx.h"
#line 43 "C:/Program Files (x86)/Microchip/mplabc18/v3.46/h/p18cxxx.h"
#line 45 "C:/Program Files (x86)/Microchip/mplabc18/v3.46/h/p18cxxx.h"
#line 47 "C:/Program Files (x86)/Microchip/mplabc18/v3.46/h/p18cxxx.h"
#line 49 "C:/Program Files (x86)/Microchip/mplabc18/v3.46/h/p18cxxx.h"
#line 51 "C:/Program Files (x86)/Microchip/mplabc18/v3.46/h/p18cxxx.h"
#line 53 "C:/Program Files (x86)/Microchip/mplabc18/v3.46/h/p18cxxx.h"
#line 55 "C:/Program Files (x86)/Microchip/mplabc18/v3.46/h/p18cxxx.h"
#line 57 "C:/Program Files (x86)/Microchip/mplabc18/v3.46/h/p18cxxx.h"
#line 59 "C:/Program Files (x86)/Microchip/mplabc18/v3.46/h/p18cxxx.h"
#line 61 "C:/Program Files (x86)/Microchip/mplabc18/v3.46/h/p18cxxx.h"
#line 63 "C:/Program Files (x86)/Microchip/mplabc18/v3.46/h/p18cxxx.h"
#line 65 "C:/Program Files (x86)/Microchip/mplabc18/v3.46/h/p18cxxx.h"
#line 67 "C:/Program Files (x86)/Microchip/mplabc18/v3.46/h/p18cxxx.h"
#line 69 "C:/Program Files (x86)/Microchip/mplabc18/v3.46/h/p18cxxx.h"
#line 71 "C:/Program Files (x86)/Microchip/mplabc18/v3.46/h/p18cxxx.h"
#line 73 "C:/Program Files (x86)/Microchip/mplabc18/v3.46/h/p18cxxx.h"
#line 75 "C:/Program Files (x86)/Microchip/mplabc18/v3.46/h/p18cxxx.h"
#line 77 "C:/Program Files (x86)/Microchip/mplabc18/v3.46/h/p18cxxx.h"
#line 79 "C:/Program Files (x86)/Microchip/mplabc18/v3.46/h/p18cxxx.h"
#line 81 "C:/Program Files (x86)/Microchip/mplabc18/v3.46/h/p18cxxx.h"
#line 83 "C:/Program Files (x86)/Microchip/mplabc18/v3.46/h/p18cxxx.h"
#line 85 "C:/Program Files (x86)/Microchip/mplabc18/v3.46/h/p18cxxx.h"
#line 87 "C:/Program Files (x86)/Microchip/mplabc18/v3.46/h/p18cxxx.h"
#line 89 "C:/Program Files (x86)/Microchip/mplabc18/v3.46/h/p18cxxx.h"
#line 91 "C:/Program Files (x86)/Microchip/mplabc18/v3.46/h/p18cxxx.h"
#line 93 "C:/Program Files (x86)/Microchip/mplabc18/v3.46/h/p18cxxx.h"
#line 95 "C:/Program Files (x86)/Microchip/mplabc18/v3.46/h/p18cxxx.h"
#line 97 "C:/Program Files (x86)/Microchip/mplabc18/v3.46/h/p18cxxx.h"
#line 99 "C:/Program Files (x86)/Microchip/mplabc18/v3.46/h/p18cxxx.h"
#line 101 "C:/Program Files (x86)/Microchip/mplabc18/v3.46/h/p18cxxx.h"
#line 103 "C:/Program Files (x86)/Microchip/mplabc18/v3.46/h/p18cxxx.h"
#line 105 "C:/Program Files (x86)/Microchip/mplabc18/v3.46/h/p18cxxx.h"
#line 107 "C:/Program Files (x86)/Microchip/mplabc18/v3.46/h/p18cxxx.h"
#line 109 "C:/Program Files (x86)/Microchip/mplabc18/v3.46/h/p18cxxx.h"
#line 111 "C:/Program Files (x86)/Microchip/mplabc18/v3.46/h/p18cxxx.h"
#line 113 "C:/Program Files (x86)/Microchip/mplabc18/v3.46/h/p18cxxx.h"
#line 115 "C:/Program Files (x86)/Microchip/mplabc18/v3.46/h/p18cxxx.h"
#line 117 "C:/Program Files (x86)/Microchip/mplabc18/v3.46/h/p18cxxx.h"
#line 119 "C:/Program Files (x86)/Microchip/mplabc18/v3.46/h/p18cxxx.h"
#line 121 "C:/Program Files (x86)/Microchip/mplabc18/v3.46/h/p18cxxx.h"
#line 123 "C:/Program Files (x86)/Microchip/mplabc18/v3.46/h/p18cxxx.h"
#line 125 "C:/Program Files (x86)/Microchip/mplabc18/v3.46/h/p18cxxx.h"
#line 127 "C:/Program Files (x86)/Microchip/mplabc18/v3.46/h/p18cxxx.h"
#line 1 "C:/Program Files (x86)/Microchip/mplabc18/v3.46/h/p18f2620.h"

#line 33 "C:/Program Files (x86)/Microchip/mplabc18/v3.46/h/p18f2620.h"
 


#line 37 "C:/Program Files (x86)/Microchip/mplabc18/v3.46/h/p18f2620.h"

extern volatile near unsigned char       PORTA;
extern volatile near union {
  struct {
    unsigned RA0:1;
    unsigned RA1:1;
    unsigned RA2:1;
    unsigned RA3:1;
    unsigned RA4:1;
    unsigned RA5:1;
    unsigned RA6:1;
    unsigned RA7:1;
  };
  struct {
    unsigned :4;
    unsigned T0CKI:1;
    unsigned AN4:1;
  };
  struct {
    unsigned :5;
    unsigned SS:1;
  };
  struct {
    unsigned :5;
    unsigned NOT_SS:1;
  };
  struct {
    unsigned :5;
    unsigned LVDIN:1;
  };
  struct {
    unsigned :5;
    unsigned HLVDIN:1;
  };
} PORTAbits;
extern volatile near unsigned char       PORTB;
extern volatile near union {
  struct {
    unsigned RB0:1;
    unsigned RB1:1;
    unsigned RB2:1;
    unsigned RB3:1;
    unsigned RB4:1;
    unsigned RB5:1;
    unsigned RB6:1;
    unsigned RB7:1;
  };
  struct {
    unsigned INT0:1;
    unsigned INT1:1;
    unsigned INT2:1;
    unsigned CCP2:1;
    unsigned KBI0:1;
    unsigned KBI1:1;
    unsigned KBI2:1;
    unsigned KBI3:1;
  };
  struct {
    unsigned AN12:1;
    unsigned AN10:1;
    unsigned AN8:1;
    unsigned AN9:1;
    unsigned AN11:1;
    unsigned PGM:1;
    unsigned PGC:1;
    unsigned PGD:1;
  };
} PORTBbits;
extern volatile near unsigned char       PORTC;
extern volatile near union {
  struct {
    unsigned RC0:1;
    unsigned RC1:1;
    unsigned RC2:1;
    unsigned RC3:1;
    unsigned RC4:1;
    unsigned RC5:1;
    unsigned RC6:1;
    unsigned RC7:1;
  };
  struct {
    unsigned T1OSO:1;
    unsigned T1OSI:1;
    unsigned CCP1:1;
    unsigned SCK:1;
    unsigned SDI:1;
    unsigned SDO:1;
    unsigned TX:1;
    unsigned RX:1;
  };
  struct {
    unsigned T13CKI:1;
    unsigned CCP2:1;
    unsigned :1;
    unsigned SCL:1;
    unsigned SDA:1;
    unsigned :1;
    unsigned CK:1;
    unsigned DT:1;
  };
  struct {
    unsigned T1CKI:1;
  };
} PORTCbits;
extern volatile near unsigned char       PORTE;
extern volatile near union {
  struct {
    unsigned :3;
    unsigned RE3:1;
  };
  struct {
    unsigned :3;
    unsigned MCLR:1;
  };
  struct {
    unsigned :3;
    unsigned NOT_MCLR:1;
  };
  struct {
    unsigned :3;
    unsigned VPP:1;
  };
} PORTEbits;
extern volatile near unsigned char       LATA;
extern volatile near struct {
  unsigned LATA0:1;
  unsigned LATA1:1;
  unsigned LATA2:1;
  unsigned LATA3:1;
  unsigned LATA4:1;
  unsigned LATA5:1;
  unsigned LATA6:1;
  unsigned LATA7:1;
} LATAbits;
extern volatile near unsigned char       LATB;
extern volatile near struct {
  unsigned LATB0:1;
  unsigned LATB1:1;
  unsigned LATB2:1;
  unsigned LATB3:1;
  unsigned LATB4:1;
  unsigned LATB5:1;
  unsigned LATB6:1;
  unsigned LATB7:1;
} LATBbits;
extern volatile near unsigned char       LATC;
extern volatile near struct {
  unsigned LATC0:1;
  unsigned LATC1:1;
  unsigned LATC2:1;
  unsigned LATC3:1;
  unsigned LATC4:1;
  unsigned LATC5:1;
  unsigned LATC6:1;
  unsigned LATC7:1;
} LATCbits;
extern volatile near unsigned char       DDRA;
extern volatile near union {
  struct {
    unsigned TRISA0:1;
    unsigned TRISA1:1;
    unsigned TRISA2:1;
    unsigned TRISA3:1;
    unsigned TRISA4:1;
    unsigned TRISA5:1;
    unsigned TRISA6:1;
    unsigned TRISA7:1;
  };
  struct {
    unsigned RA0:1;
    unsigned RA1:1;
    unsigned RA2:1;
    unsigned RA3:1;
    unsigned RA4:1;
    unsigned RA5:1;
    unsigned RA6:1;
    unsigned RA7:1;
  };
} DDRAbits;
extern volatile near unsigned char       TRISA;
extern volatile near union {
  struct {
    unsigned TRISA0:1;
    unsigned TRISA1:1;
    unsigned TRISA2:1;
    unsigned TRISA3:1;
    unsigned TRISA4:1;
    unsigned TRISA5:1;
    unsigned TRISA6:1;
    unsigned TRISA7:1;
  };
  struct {
    unsigned RA0:1;
    unsigned RA1:1;
    unsigned RA2:1;
    unsigned RA3:1;
    unsigned RA4:1;
    unsigned RA5:1;
    unsigned RA6:1;
    unsigned RA7:1;
  };
} TRISAbits;
extern volatile near unsigned char       DDRB;
extern volatile near union {
  struct {
    unsigned TRISB0:1;
    unsigned TRISB1:1;
    unsigned TRISB2:1;
    unsigned TRISB3:1;
    unsigned TRISB4:1;
    unsigned TRISB5:1;
    unsigned TRISB6:1;
    unsigned TRISB7:1;
  };
  struct {
    unsigned RB0:1;
    unsigned RB1:1;
    unsigned RB2:1;
    unsigned RB3:1;
    unsigned RB4:1;
    unsigned RB5:1;
    unsigned RB6:1;
    unsigned RB7:1;
  };
} DDRBbits;
extern volatile near unsigned char       TRISB;
extern volatile near union {
  struct {
    unsigned TRISB0:1;
    unsigned TRISB1:1;
    unsigned TRISB2:1;
    unsigned TRISB3:1;
    unsigned TRISB4:1;
    unsigned TRISB5:1;
    unsigned TRISB6:1;
    unsigned TRISB7:1;
  };
  struct {
    unsigned RB0:1;
    unsigned RB1:1;
    unsigned RB2:1;
    unsigned RB3:1;
    unsigned RB4:1;
    unsigned RB5:1;
    unsigned RB6:1;
    unsigned RB7:1;
  };
} TRISBbits;
extern volatile near unsigned char       DDRC;
extern volatile near union {
  struct {
    unsigned TRISC0:1;
    unsigned TRISC1:1;
    unsigned TRISC2:1;
    unsigned TRISC3:1;
    unsigned TRISC4:1;
    unsigned TRISC5:1;
    unsigned TRISC6:1;
    unsigned TRISC7:1;
  };
  struct {
    unsigned RC0:1;
    unsigned RC1:1;
    unsigned RC2:1;
    unsigned RC3:1;
    unsigned RC4:1;
    unsigned RC5:1;
    unsigned RC6:1;
    unsigned RC7:1;
  };
} DDRCbits;
extern volatile near unsigned char       TRISC;
extern volatile near union {
  struct {
    unsigned TRISC0:1;
    unsigned TRISC1:1;
    unsigned TRISC2:1;
    unsigned TRISC3:1;
    unsigned TRISC4:1;
    unsigned TRISC5:1;
    unsigned TRISC6:1;
    unsigned TRISC7:1;
  };
  struct {
    unsigned RC0:1;
    unsigned RC1:1;
    unsigned RC2:1;
    unsigned RC3:1;
    unsigned RC4:1;
    unsigned RC5:1;
    unsigned RC6:1;
    unsigned RC7:1;
  };
} TRISCbits;
extern volatile near unsigned char       OSCTUNE;
extern volatile near union {
  struct {
    unsigned TUN:5;
    unsigned :1;
    unsigned PLLEN:1;
    unsigned INTSRC:1;
  };
  struct {
    unsigned TUN0:1;
    unsigned TUN1:1;
    unsigned TUN2:1;
    unsigned TUN3:1;
    unsigned TUN4:1;
  };
} OSCTUNEbits;
extern volatile near unsigned char       PIE1;
extern volatile near struct {
  unsigned TMR1IE:1;
  unsigned TMR2IE:1;
  unsigned CCP1IE:1;
  unsigned SSPIE:1;
  unsigned TXIE:1;
  unsigned RCIE:1;
  unsigned ADIE:1;
} PIE1bits;
extern volatile near unsigned char       PIR1;
extern volatile near struct {
  unsigned TMR1IF:1;
  unsigned TMR2IF:1;
  unsigned CCP1IF:1;
  unsigned SSPIF:1;
  unsigned TXIF:1;
  unsigned RCIF:1;
  unsigned ADIF:1;
} PIR1bits;
extern volatile near unsigned char       IPR1;
extern volatile near struct {
  unsigned TMR1IP:1;
  unsigned TMR2IP:1;
  unsigned CCP1IP:1;
  unsigned SSPIP:1;
  unsigned TXIP:1;
  unsigned RCIP:1;
  unsigned ADIP:1;
} IPR1bits;
extern volatile near unsigned char       PIE2;
extern volatile near union {
  struct {
    unsigned CCP2IE:1;
    unsigned TMR3IE:1;
    unsigned HLVDIE:1;
    unsigned BCLIE:1;
    unsigned EEIE:1;
    unsigned :1;
    unsigned CMIE:1;
    unsigned OSCFIE:1;
  };
  struct {
    unsigned :2;
    unsigned LVDIE:1;
  };
} PIE2bits;
extern volatile near unsigned char       PIR2;
extern volatile near union {
  struct {
    unsigned CCP2IF:1;
    unsigned TMR3IF:1;
    unsigned HLVDIF:1;
    unsigned BCLIF:1;
    unsigned EEIF:1;
    unsigned :1;
    unsigned CMIF:1;
    unsigned OSCFIF:1;
  };
  struct {
    unsigned :2;
    unsigned LVDIF:1;
  };
} PIR2bits;
extern volatile near unsigned char       IPR2;
extern volatile near union {
  struct {
    unsigned CCP2IP:1;
    unsigned TMR3IP:1;
    unsigned HLVDIP:1;
    unsigned BCLIP:1;
    unsigned EEIP:1;
    unsigned :1;
    unsigned CMIP:1;
    unsigned OSCFIP:1;
  };
  struct {
    unsigned :2;
    unsigned LVDIP:1;
  };
} IPR2bits;
extern volatile near unsigned char       EECON1;
extern volatile near struct {
  unsigned RD:1;
  unsigned WR:1;
  unsigned WREN:1;
  unsigned WRERR:1;
  unsigned FREE:1;
  unsigned :1;
  unsigned CFGS:1;
  unsigned EEPGD:1;
} EECON1bits;
extern volatile near unsigned char       EECON2;
extern volatile near unsigned char       EEDATA;
extern volatile near unsigned char       EEADR;
extern volatile near unsigned char       EEADRH;
extern volatile near unsigned char       RCSTA;
extern volatile near union {
  struct {
    unsigned RX9D:1;
    unsigned OERR:1;
    unsigned FERR:1;
    unsigned ADDEN:1;
    unsigned CREN:1;
    unsigned SREN:1;
    unsigned RX9:1;
    unsigned SPEN:1;
  };
  struct {
    unsigned :3;
    unsigned ADEN:1;
  };
} RCSTAbits;
extern volatile near unsigned char       TXSTA;
extern volatile near struct {
  unsigned TX9D:1;
  unsigned TRMT:1;
  unsigned BRGH:1;
  unsigned SENDB:1;
  unsigned SYNC:1;
  unsigned TXEN:1;
  unsigned TX9:1;
  unsigned CSRC:1;
} TXSTAbits;
extern volatile near unsigned char       TXREG;
extern volatile near unsigned char       RCREG;
extern volatile near unsigned char       SPBRG;
extern volatile near unsigned char       SPBRGH;
extern volatile near unsigned char       T3CON;
extern volatile near union {
  struct {
    unsigned TMR3ON:1;
    unsigned TMR3CS:1;
    unsigned NOT_T3SYNC:1;
    unsigned T3CCP1:1;
    unsigned T3CKPS:2;
    unsigned T3CCP2:1;
    unsigned RD16:1;
  };
  struct {
    unsigned :2;
    unsigned T3SYNC:1;
    unsigned :1;
    unsigned T3CKPS0:1;
    unsigned T3CKPS1:1;
  };
} T3CONbits;
extern volatile near unsigned char       TMR3L;
extern volatile near unsigned char       TMR3H;
extern volatile near unsigned char       CMCON;
extern volatile near union {
  struct {
    unsigned CM:3;
    unsigned CIS:1;
    unsigned C1INV:1;
    unsigned C2INV:1;
    unsigned C1OUT:1;
    unsigned C2OUT:1;
  };
  struct {
    unsigned CM0:1;
    unsigned CM1:1;
    unsigned CM2:1;
  };
} CMCONbits;
extern volatile near unsigned char       CVRCON;
extern volatile near union {
  struct {
    unsigned CVR:4;
    unsigned CVRSS:1;
    unsigned CVRR:1;
    unsigned CVROE:1;
    unsigned CVREN:1;
  };
  struct {
    unsigned CVR0:1;
    unsigned CVR1:1;
    unsigned CVR2:1;
    unsigned CVR3:1;
  };
} CVRCONbits;
extern volatile near unsigned char       ECCP1AS;
extern volatile near union {
  struct {
    unsigned :2;
    unsigned PSSAC:2;
    unsigned ECCPAS:3;
    unsigned ECCPASE:1;
  };
  struct {
    unsigned :2;
    unsigned PSSAC0:1;
    unsigned PSSAC1:1;
    unsigned ECCPAS0:1;
    unsigned ECCPAS1:1;
    unsigned ECCPAS2:1;
  };
} ECCP1ASbits;
extern volatile near unsigned char       ECCPAS;
extern volatile near union {
  struct {
    unsigned :2;
    unsigned PSSAC:2;
    unsigned ECCPAS:3;
    unsigned ECCPASE:1;
  };
  struct {
    unsigned :2;
    unsigned PSSAC0:1;
    unsigned PSSAC1:1;
    unsigned ECCPAS0:1;
    unsigned ECCPAS1:1;
    unsigned ECCPAS2:1;
  };
} ECCPASbits;
extern volatile near unsigned char       ECCP1DEL;
extern volatile near struct {
  unsigned :7;
  unsigned PRSEN:1;
} ECCP1DELbits;
extern volatile near unsigned char       PWM1CON;
extern volatile near struct {
  unsigned :7;
  unsigned PRSEN:1;
} PWM1CONbits;
extern volatile near unsigned char       BAUDCON;
extern volatile near union {
  struct {
    unsigned ABDEN:1;
    unsigned WUE:1;
    unsigned :1;
    unsigned BRG16:1;
    unsigned TXCKP:1;
    unsigned RXDTP:1;
    unsigned RCIDL:1;
    unsigned ABDOVF:1;
  };
  struct {
    unsigned :4;
    unsigned SCKP:1;
    unsigned RXCKP:1;
    unsigned RCMT:1;
  };
} BAUDCONbits;
extern volatile near unsigned char       BAUDCTL;
extern volatile near union {
  struct {
    unsigned ABDEN:1;
    unsigned WUE:1;
    unsigned :1;
    unsigned BRG16:1;
    unsigned TXCKP:1;
    unsigned RXDTP:1;
    unsigned RCIDL:1;
    unsigned ABDOVF:1;
  };
  struct {
    unsigned :4;
    unsigned SCKP:1;
    unsigned RXCKP:1;
    unsigned RCMT:1;
  };
} BAUDCTLbits;
extern volatile near unsigned char       CCP2CON;
extern volatile near union {
  struct {
    unsigned CCP2M:4;
    unsigned DC2B:2;
  };
  struct {
    unsigned CCP2M0:1;
    unsigned CCP2M1:1;
    unsigned CCP2M2:1;
    unsigned CCP2M3:1;
    unsigned CCP2Y:1;
    unsigned CCP2X:1;
  };
  struct {
    unsigned :4;
    unsigned DC2B0:1;
    unsigned DC2B1:1;
  };
} CCP2CONbits;
extern volatile near unsigned            CCPR2;
extern volatile near unsigned char       CCPR2L;
extern volatile near unsigned char       CCPR2H;
extern volatile near unsigned char       CCP1CON;
extern volatile near union {
  struct {
    unsigned CCP1M:4;
    unsigned DC1B:2;
  };
  struct {
    unsigned CCP1M0:1;
    unsigned CCP1M1:1;
    unsigned CCP1M2:1;
    unsigned CCP1M3:1;
    unsigned CCP1Y:1;
    unsigned CCP1X:1;
  };
  struct {
    unsigned :4;
    unsigned DC1B0:1;
    unsigned DC1B1:1;
  };
} CCP1CONbits;
extern volatile near unsigned            CCPR1;
extern volatile near unsigned char       CCPR1L;
extern volatile near unsigned char       CCPR1H;
extern volatile near unsigned char       ADCON2;
extern volatile near union {
  struct {
    unsigned ADCS:3;
    unsigned ACQT:3;
    unsigned :1;
    unsigned ADFM:1;
  };
  struct {
    unsigned ADCS0:1;
    unsigned ADCS1:1;
    unsigned ADCS2:1;
    unsigned ACQT0:1;
    unsigned ACQT1:1;
    unsigned ACQT2:1;
  };
} ADCON2bits;
extern volatile near unsigned char       ADCON1;
extern volatile near union {
  struct {
    unsigned PCFG:4;
    unsigned VCFG:2;
  };
  struct {
    unsigned PCFG0:1;
    unsigned PCFG1:1;
    unsigned PCFG2:1;
    unsigned PCFG3:1;
    unsigned VCFG0:1;
    unsigned VCFG1:1;
  };
} ADCON1bits;
extern volatile near unsigned char       ADCON0;
extern volatile near union {
  struct {
    unsigned ADON:1;
    unsigned GO_NOT_DONE:1;
    unsigned CHS:4;
  };
  struct {
    unsigned :1;
    unsigned GO:1;
    unsigned CHS0:1;
    unsigned CHS1:1;
    unsigned CHS2:1;
    unsigned CHS3:1;
  };
  struct {
    unsigned :1;
    unsigned DONE:1;
  };
  struct {
    unsigned :1;
    unsigned NOT_DONE:1;
  };
  struct {
    unsigned :1;
    unsigned GO_DONE:1;
  };
} ADCON0bits;
extern volatile near unsigned            ADRES;
extern volatile near unsigned char       ADRESL;
extern volatile near unsigned char       ADRESH;
extern volatile near unsigned char       SSPCON2;
extern volatile near struct {
  unsigned SEN:1;
  unsigned RSEN:1;
  unsigned PEN:1;
  unsigned RCEN:1;
  unsigned ACKEN:1;
  unsigned ACKDT:1;
  unsigned ACKSTAT:1;
  unsigned GCEN:1;
} SSPCON2bits;
extern volatile near unsigned char       SSPCON1;
extern volatile near union {
  struct {
    unsigned SSPM:4;
    unsigned CKP:1;
    unsigned SSPEN:1;
    unsigned SSPOV:1;
    unsigned WCOL:1;
  };
  struct {
    unsigned SSPM0:1;
    unsigned SSPM1:1;
    unsigned SSPM2:1;
    unsigned SSPM3:1;
  };
} SSPCON1bits;
extern volatile near unsigned char       SSPSTAT;
extern volatile near union {
  struct {
    unsigned BF:1;
    unsigned UA:1;
    unsigned R_NOT_W:1;
    unsigned S:1;
    unsigned P:1;
    unsigned D_NOT_A:1;
    unsigned CKE:1;
    unsigned SMP:1;
  };
  struct {
    unsigned :2;
    unsigned R:1;
    unsigned :2;
    unsigned D:1;
  };
  struct {
    unsigned :2;
    unsigned W:1;
    unsigned :2;
    unsigned A:1;
  };
  struct {
    unsigned :2;
    unsigned NOT_W:1;
    unsigned :2;
    unsigned NOT_A:1;
  };
  struct {
    unsigned :2;
    unsigned R_W:1;
    unsigned :2;
    unsigned D_A:1;
  };
  struct {
    unsigned :2;
    unsigned NOT_WRITE:1;
    unsigned :2;
    unsigned NOT_ADDRESS:1;
  };
} SSPSTATbits;
extern volatile near unsigned char       SSPADD;
extern volatile near unsigned char       SSPBUF;
extern volatile near unsigned char       T2CON;
extern volatile near union {
  struct {
    unsigned T2CKPS:2;
    unsigned TMR2ON:1;
    unsigned TOUTPS:4;
  };
  struct {
    unsigned T2CKPS0:1;
    unsigned T2CKPS1:1;
    unsigned :1;
    unsigned T2OUTPS0:1;
    unsigned T2OUTPS1:1;
    unsigned T2OUTPS2:1;
    unsigned T2OUTPS3:1;
  };
} T2CONbits;
extern volatile near unsigned char       PR2;
extern volatile near unsigned char       TMR2;
extern volatile near unsigned char       T1CON;
extern volatile near union {
  struct {
    unsigned TMR1ON:1;
    unsigned TMR1CS:1;
    unsigned NOT_T1SYNC:1;
    unsigned T1OSCEN:1;
    unsigned T1CKPS:2;
    unsigned T1RUN:1;
    unsigned RD16:1;
  };
  struct {
    unsigned :2;
    unsigned T1SYNC:1;
    unsigned :1;
    unsigned T1CKPS0:1;
    unsigned T1CKPS1:1;
  };
} T1CONbits;
extern volatile near unsigned char       TMR1L;
extern volatile near unsigned char       TMR1H;
extern volatile near unsigned char       RCON;
extern volatile near union {
  struct {
    unsigned NOT_BOR:1;
    unsigned NOT_POR:1;
    unsigned NOT_PD:1;
    unsigned NOT_TO:1;
    unsigned NOT_RI:1;
    unsigned :1;
    unsigned SBOREN:1;
    unsigned IPEN:1;
  };
  struct {
    unsigned BOR:1;
    unsigned POR:1;
    unsigned PD:1;
    unsigned TO:1;
    unsigned RI:1;
  };
} RCONbits;
extern volatile near unsigned char       WDTCON;
extern volatile near union {
  struct {
    unsigned SWDTEN:1;
  };
  struct {
    unsigned SWDTE:1;
  };
} WDTCONbits;
extern volatile near unsigned char       HLVDCON;
extern volatile near union {
  struct {
    unsigned HLVDL:4;
    unsigned HLVDEN:1;
    unsigned IVRST:1;
    unsigned :1;
    unsigned VDIRMAG:1;
  };
  struct {
    unsigned HLVDL0:1;
    unsigned HLVDL1:1;
    unsigned HLVDL2:1;
    unsigned HLVDL3:1;
  };
  struct {
    unsigned LVDL0:1;
    unsigned LVDL1:1;
    unsigned LVDL2:1;
    unsigned LVDL3:1;
    unsigned LVDEN:1;
    unsigned IRVST:1;
  };
  struct {
    unsigned LVV0:1;
    unsigned LVV1:1;
    unsigned LVV2:1;
    unsigned LVV3:1;
    unsigned :1;
    unsigned BGST:1;
  };
} HLVDCONbits;
extern volatile near unsigned char       LVDCON;
extern volatile near union {
  struct {
    unsigned HLVDL:4;
    unsigned HLVDEN:1;
    unsigned IVRST:1;
    unsigned :1;
    unsigned VDIRMAG:1;
  };
  struct {
    unsigned HLVDL0:1;
    unsigned HLVDL1:1;
    unsigned HLVDL2:1;
    unsigned HLVDL3:1;
  };
  struct {
    unsigned LVDL0:1;
    unsigned LVDL1:1;
    unsigned LVDL2:1;
    unsigned LVDL3:1;
    unsigned LVDEN:1;
    unsigned IRVST:1;
  };
  struct {
    unsigned LVV0:1;
    unsigned LVV1:1;
    unsigned LVV2:1;
    unsigned LVV3:1;
    unsigned :1;
    unsigned BGST:1;
  };
} LVDCONbits;
extern volatile near unsigned char       OSCCON;
extern volatile near union {
  struct {
    unsigned SCS:2;
    unsigned IOFS:1;
    unsigned OSTS:1;
    unsigned IRCF:3;
    unsigned IDLEN:1;
  };
  struct {
    unsigned SCS0:1;
    unsigned SCS1:1;
    unsigned :2;
    unsigned IRCF0:1;
    unsigned IRCF1:1;
    unsigned IRCF2:1;
  };
} OSCCONbits;
extern volatile near unsigned char       T0CON;
extern volatile near union {
  struct {
    unsigned T0PS:3;
    unsigned PSA:1;
    unsigned T0SE:1;
    unsigned T0CS:1;
    unsigned T08BIT:1;
    unsigned TMR0ON:1;
  };
  struct {
    unsigned T0PS0:1;
    unsigned T0PS1:1;
    unsigned T0PS2:1;
    unsigned :3;
    unsigned T016BIT:1;
  };
} T0CONbits;
extern volatile near unsigned char       TMR0L;
extern volatile near unsigned char       TMR0H;
extern          near unsigned char       STATUS;
extern          near struct {
  unsigned C:1;
  unsigned DC:1;
  unsigned Z:1;
  unsigned OV:1;
  unsigned N:1;
} STATUSbits;
extern          near unsigned            FSR2;
extern          near unsigned char       FSR2L;
extern          near unsigned char       FSR2H;
extern volatile near unsigned char       PLUSW2;
extern volatile near unsigned char       PREINC2;
extern volatile near unsigned char       POSTDEC2;
extern volatile near unsigned char       POSTINC2;
extern          near unsigned char       INDF2;
extern          near unsigned char       BSR;
extern          near unsigned            FSR1;
extern          near unsigned char       FSR1L;
extern          near unsigned char       FSR1H;
extern volatile near unsigned char       PLUSW1;
extern volatile near unsigned char       PREINC1;
extern volatile near unsigned char       POSTDEC1;
extern volatile near unsigned char       POSTINC1;
extern          near unsigned char       INDF1;
extern          near unsigned char       W;
extern          near unsigned char       WREG;
extern          near unsigned            FSR0;
extern          near unsigned char       FSR0L;
extern          near unsigned char       FSR0H;
extern volatile near unsigned char       PLUSW0;
extern volatile near unsigned char       PREINC0;
extern volatile near unsigned char       POSTDEC0;
extern volatile near unsigned char       POSTINC0;
extern          near unsigned char       INDF0;
extern volatile near unsigned char       INTCON3;
extern volatile near union {
  struct {
    unsigned INT1IF:1;
    unsigned INT2IF:1;
    unsigned :1;
    unsigned INT1IE:1;
    unsigned INT2IE:1;
    unsigned :1;
    unsigned INT1IP:1;
    unsigned INT2IP:1;
  };
  struct {
    unsigned INT1F:1;
    unsigned INT2F:1;
    unsigned :1;
    unsigned INT1E:1;
    unsigned INT2E:1;
    unsigned :1;
    unsigned INT1P:1;
    unsigned INT2P:1;
  };
} INTCON3bits;
extern volatile near unsigned char       INTCON2;
extern volatile near union {
  struct {
    unsigned RBIP:1;
    unsigned :1;
    unsigned TMR0IP:1;
    unsigned :1;
    unsigned INTEDG2:1;
    unsigned INTEDG1:1;
    unsigned INTEDG0:1;
    unsigned NOT_RBPU:1;
  };
  struct {
    unsigned :7;
    unsigned RBPU:1;
  };
} INTCON2bits;
extern volatile near unsigned char       INTCON;
extern volatile near union {
  struct {
    unsigned RBIF:1;
    unsigned INT0IF:1;
    unsigned TMR0IF:1;
    unsigned RBIE:1;
    unsigned INT0IE:1;
    unsigned TMR0IE:1;
    unsigned PEIE_GIEL:1;
    unsigned GIE_GIEH:1;
  };
  struct {
    unsigned :1;
    unsigned INT0F:1;
    unsigned T0IF:1;
    unsigned :1;
    unsigned INT0E:1;
    unsigned T0IE:1;
    unsigned PEIE:1;
    unsigned GIE:1;
  };
  struct {
    unsigned :6;
    unsigned GIEL:1;
    unsigned GIEH:1;
  };
} INTCONbits;
extern          near unsigned            PROD;
extern          near unsigned char       PRODL;
extern          near unsigned char       PRODH;
extern volatile near unsigned char       TABLAT;
extern volatile near unsigned short long TBLPTR;
extern volatile near unsigned char       TBLPTRL;
extern volatile near unsigned char       TBLPTRH;
extern volatile near unsigned char       TBLPTRU;
extern volatile near unsigned short long PC;
extern volatile near unsigned char       PCL;
extern volatile near unsigned char       PCLATH;
extern volatile near unsigned char       PCLATU;
extern volatile near unsigned char       STKPTR;
extern volatile near union {
  struct {
    unsigned STKPTR:5;
    unsigned :1;
    unsigned STKUNF:1;
    unsigned STKFUL:1;
  };
  struct {
    unsigned STKPTR0:1;
    unsigned STKPTR1:1;
    unsigned STKPTR2:1;
    unsigned STKPTR3:1;
    unsigned STKPTR4:1;
    unsigned :2;
    unsigned STKOVF:1;
  };
  struct {
    unsigned SP0:1;
    unsigned SP1:1;
    unsigned SP2:1;
    unsigned SP3:1;
    unsigned SP4:1;
  };
} STKPTRbits;
extern          near unsigned short long TOS;
extern          near unsigned char       TOSL;
extern          near unsigned char       TOSH;
extern          near unsigned char       TOSU;



#line 1110 "C:/Program Files (x86)/Microchip/mplabc18/v3.46/h/p18f2620.h"
 
#line 1112 "C:/Program Files (x86)/Microchip/mplabc18/v3.46/h/p18f2620.h"
#line 1113 "C:/Program Files (x86)/Microchip/mplabc18/v3.46/h/p18f2620.h"


#line 1116 "C:/Program Files (x86)/Microchip/mplabc18/v3.46/h/p18f2620.h"
 
#line 1118 "C:/Program Files (x86)/Microchip/mplabc18/v3.46/h/p18f2620.h"
#line 1119 "C:/Program Files (x86)/Microchip/mplabc18/v3.46/h/p18f2620.h"
#line 1120 "C:/Program Files (x86)/Microchip/mplabc18/v3.46/h/p18f2620.h"
#line 1121 "C:/Program Files (x86)/Microchip/mplabc18/v3.46/h/p18f2620.h"

#line 1123 "C:/Program Files (x86)/Microchip/mplabc18/v3.46/h/p18f2620.h"
#line 1124 "C:/Program Files (x86)/Microchip/mplabc18/v3.46/h/p18f2620.h"
#line 1125 "C:/Program Files (x86)/Microchip/mplabc18/v3.46/h/p18f2620.h"
#line 1126 "C:/Program Files (x86)/Microchip/mplabc18/v3.46/h/p18f2620.h"
#line 1127 "C:/Program Files (x86)/Microchip/mplabc18/v3.46/h/p18f2620.h"


#line 1131 "C:/Program Files (x86)/Microchip/mplabc18/v3.46/h/p18f2620.h"
 
#line 1133 "C:/Program Files (x86)/Microchip/mplabc18/v3.46/h/p18f2620.h"


#line 1136 "C:/Program Files (x86)/Microchip/mplabc18/v3.46/h/p18f2620.h"
#line 127 "C:/Program Files (x86)/Microchip/mplabc18/v3.46/h/p18cxxx.h"

#line 129 "C:/Program Files (x86)/Microchip/mplabc18/v3.46/h/p18cxxx.h"
#line 131 "C:/Program Files (x86)/Microchip/mplabc18/v3.46/h/p18cxxx.h"
#line 133 "C:/Program Files (x86)/Microchip/mplabc18/v3.46/h/p18cxxx.h"
#line 135 "C:/Program Files (x86)/Microchip/mplabc18/v3.46/h/p18cxxx.h"
#line 137 "C:/Program Files (x86)/Microchip/mplabc18/v3.46/h/p18cxxx.h"
#line 139 "C:/Program Files (x86)/Microchip/mplabc18/v3.46/h/p18cxxx.h"
#line 141 "C:/Program Files (x86)/Microchip/mplabc18/v3.46/h/p18cxxx.h"
#line 143 "C:/Program Files (x86)/Microchip/mplabc18/v3.46/h/p18cxxx.h"
#line 145 "C:/Program Files (x86)/Microchip/mplabc18/v3.46/h/p18cxxx.h"
#line 147 "C:/Program Files (x86)/Microchip/mplabc18/v3.46/h/p18cxxx.h"
#line 149 "C:/Program Files (x86)/Microchip/mplabc18/v3.46/h/p18cxxx.h"
#line 151 "C:/Program Files (x86)/Microchip/mplabc18/v3.46/h/p18cxxx.h"
#line 153 "C:/Program Files (x86)/Microchip/mplabc18/v3.46/h/p18cxxx.h"
#line 155 "C:/Program Files (x86)/Microchip/mplabc18/v3.46/h/p18cxxx.h"
#line 157 "C:/Program Files (x86)/Microchip/mplabc18/v3.46/h/p18cxxx.h"
#line 159 "C:/Program Files (x86)/Microchip/mplabc18/v3.46/h/p18cxxx.h"
#line 161 "C:/Program Files (x86)/Microchip/mplabc18/v3.46/h/p18cxxx.h"
#line 163 "C:/Program Files (x86)/Microchip/mplabc18/v3.46/h/p18cxxx.h"
#line 165 "C:/Program Files (x86)/Microchip/mplabc18/v3.46/h/p18cxxx.h"
#line 167 "C:/Program Files (x86)/Microchip/mplabc18/v3.46/h/p18cxxx.h"
#line 169 "C:/Program Files (x86)/Microchip/mplabc18/v3.46/h/p18cxxx.h"
#line 171 "C:/Program Files (x86)/Microchip/mplabc18/v3.46/h/p18cxxx.h"
#line 173 "C:/Program Files (x86)/Microchip/mplabc18/v3.46/h/p18cxxx.h"
#line 175 "C:/Program Files (x86)/Microchip/mplabc18/v3.46/h/p18cxxx.h"
#line 177 "C:/Program Files (x86)/Microchip/mplabc18/v3.46/h/p18cxxx.h"
#line 179 "C:/Program Files (x86)/Microchip/mplabc18/v3.46/h/p18cxxx.h"
#line 181 "C:/Program Files (x86)/Microchip/mplabc18/v3.46/h/p18cxxx.h"
#line 183 "C:/Program Files (x86)/Microchip/mplabc18/v3.46/h/p18cxxx.h"
#line 185 "C:/Program Files (x86)/Microchip/mplabc18/v3.46/h/p18cxxx.h"
#line 187 "C:/Program Files (x86)/Microchip/mplabc18/v3.46/h/p18cxxx.h"
#line 189 "C:/Program Files (x86)/Microchip/mplabc18/v3.46/h/p18cxxx.h"
#line 191 "C:/Program Files (x86)/Microchip/mplabc18/v3.46/h/p18cxxx.h"
#line 193 "C:/Program Files (x86)/Microchip/mplabc18/v3.46/h/p18cxxx.h"
#line 195 "C:/Program Files (x86)/Microchip/mplabc18/v3.46/h/p18cxxx.h"
#line 197 "C:/Program Files (x86)/Microchip/mplabc18/v3.46/h/p18cxxx.h"
#line 199 "C:/Program Files (x86)/Microchip/mplabc18/v3.46/h/p18cxxx.h"
#line 201 "C:/Program Files (x86)/Microchip/mplabc18/v3.46/h/p18cxxx.h"
#line 203 "C:/Program Files (x86)/Microchip/mplabc18/v3.46/h/p18cxxx.h"
#line 205 "C:/Program Files (x86)/Microchip/mplabc18/v3.46/h/p18cxxx.h"
#line 207 "C:/Program Files (x86)/Microchip/mplabc18/v3.46/h/p18cxxx.h"
#line 209 "C:/Program Files (x86)/Microchip/mplabc18/v3.46/h/p18cxxx.h"
#line 211 "C:/Program Files (x86)/Microchip/mplabc18/v3.46/h/p18cxxx.h"
#line 213 "C:/Program Files (x86)/Microchip/mplabc18/v3.46/h/p18cxxx.h"
#line 215 "C:/Program Files (x86)/Microchip/mplabc18/v3.46/h/p18cxxx.h"
#line 217 "C:/Program Files (x86)/Microchip/mplabc18/v3.46/h/p18cxxx.h"
#line 219 "C:/Program Files (x86)/Microchip/mplabc18/v3.46/h/p18cxxx.h"
#line 221 "C:/Program Files (x86)/Microchip/mplabc18/v3.46/h/p18cxxx.h"
#line 223 "C:/Program Files (x86)/Microchip/mplabc18/v3.46/h/p18cxxx.h"
#line 225 "C:/Program Files (x86)/Microchip/mplabc18/v3.46/h/p18cxxx.h"
#line 227 "C:/Program Files (x86)/Microchip/mplabc18/v3.46/h/p18cxxx.h"
#line 229 "C:/Program Files (x86)/Microchip/mplabc18/v3.46/h/p18cxxx.h"
#line 231 "C:/Program Files (x86)/Microchip/mplabc18/v3.46/h/p18cxxx.h"
#line 233 "C:/Program Files (x86)/Microchip/mplabc18/v3.46/h/p18cxxx.h"
#line 235 "C:/Program Files (x86)/Microchip/mplabc18/v3.46/h/p18cxxx.h"
#line 237 "C:/Program Files (x86)/Microchip/mplabc18/v3.46/h/p18cxxx.h"
#line 239 "C:/Program Files (x86)/Microchip/mplabc18/v3.46/h/p18cxxx.h"
#line 241 "C:/Program Files (x86)/Microchip/mplabc18/v3.46/h/p18cxxx.h"
#line 243 "C:/Program Files (x86)/Microchip/mplabc18/v3.46/h/p18cxxx.h"
#line 245 "C:/Program Files (x86)/Microchip/mplabc18/v3.46/h/p18cxxx.h"
#line 247 "C:/Program Files (x86)/Microchip/mplabc18/v3.46/h/p18cxxx.h"
#line 249 "C:/Program Files (x86)/Microchip/mplabc18/v3.46/h/p18cxxx.h"
#line 251 "C:/Program Files (x86)/Microchip/mplabc18/v3.46/h/p18cxxx.h"
#line 253 "C:/Program Files (x86)/Microchip/mplabc18/v3.46/h/p18cxxx.h"
#line 255 "C:/Program Files (x86)/Microchip/mplabc18/v3.46/h/p18cxxx.h"
#line 257 "C:/Program Files (x86)/Microchip/mplabc18/v3.46/h/p18cxxx.h"
#line 259 "C:/Program Files (x86)/Microchip/mplabc18/v3.46/h/p18cxxx.h"
#line 261 "C:/Program Files (x86)/Microchip/mplabc18/v3.46/h/p18cxxx.h"
#line 263 "C:/Program Files (x86)/Microchip/mplabc18/v3.46/h/p18cxxx.h"
#line 265 "C:/Program Files (x86)/Microchip/mplabc18/v3.46/h/p18cxxx.h"
#line 267 "C:/Program Files (x86)/Microchip/mplabc18/v3.46/h/p18cxxx.h"
#line 269 "C:/Program Files (x86)/Microchip/mplabc18/v3.46/h/p18cxxx.h"
#line 271 "C:/Program Files (x86)/Microchip/mplabc18/v3.46/h/p18cxxx.h"
#line 273 "C:/Program Files (x86)/Microchip/mplabc18/v3.46/h/p18cxxx.h"
#line 275 "C:/Program Files (x86)/Microchip/mplabc18/v3.46/h/p18cxxx.h"
#line 277 "C:/Program Files (x86)/Microchip/mplabc18/v3.46/h/p18cxxx.h"
#line 279 "C:/Program Files (x86)/Microchip/mplabc18/v3.46/h/p18cxxx.h"
#line 281 "C:/Program Files (x86)/Microchip/mplabc18/v3.46/h/p18cxxx.h"
#line 283 "C:/Program Files (x86)/Microchip/mplabc18/v3.46/h/p18cxxx.h"
#line 285 "C:/Program Files (x86)/Microchip/mplabc18/v3.46/h/p18cxxx.h"
#line 287 "C:/Program Files (x86)/Microchip/mplabc18/v3.46/h/p18cxxx.h"
#line 289 "C:/Program Files (x86)/Microchip/mplabc18/v3.46/h/p18cxxx.h"
#line 291 "C:/Program Files (x86)/Microchip/mplabc18/v3.46/h/p18cxxx.h"
#line 293 "C:/Program Files (x86)/Microchip/mplabc18/v3.46/h/p18cxxx.h"
#line 295 "C:/Program Files (x86)/Microchip/mplabc18/v3.46/h/p18cxxx.h"
#line 297 "C:/Program Files (x86)/Microchip/mplabc18/v3.46/h/p18cxxx.h"
#line 299 "C:/Program Files (x86)/Microchip/mplabc18/v3.46/h/p18cxxx.h"
#line 301 "C:/Program Files (x86)/Microchip/mplabc18/v3.46/h/p18cxxx.h"
#line 303 "C:/Program Files (x86)/Microchip/mplabc18/v3.46/h/p18cxxx.h"
#line 305 "C:/Program Files (x86)/Microchip/mplabc18/v3.46/h/p18cxxx.h"
#line 307 "C:/Program Files (x86)/Microchip/mplabc18/v3.46/h/p18cxxx.h"
#line 309 "C:/Program Files (x86)/Microchip/mplabc18/v3.46/h/p18cxxx.h"
#line 311 "C:/Program Files (x86)/Microchip/mplabc18/v3.46/h/p18cxxx.h"
#line 313 "C:/Program Files (x86)/Microchip/mplabc18/v3.46/h/p18cxxx.h"
#line 315 "C:/Program Files (x86)/Microchip/mplabc18/v3.46/h/p18cxxx.h"
#line 317 "C:/Program Files (x86)/Microchip/mplabc18/v3.46/h/p18cxxx.h"
#line 319 "C:/Program Files (x86)/Microchip/mplabc18/v3.46/h/p18cxxx.h"
#line 321 "C:/Program Files (x86)/Microchip/mplabc18/v3.46/h/p18cxxx.h"
#line 323 "C:/Program Files (x86)/Microchip/mplabc18/v3.46/h/p18cxxx.h"
#line 325 "C:/Program Files (x86)/Microchip/mplabc18/v3.46/h/p18cxxx.h"
#line 327 "C:/Program Files (x86)/Microchip/mplabc18/v3.46/h/p18cxxx.h"
#line 329 "C:/Program Files (x86)/Microchip/mplabc18/v3.46/h/p18cxxx.h"
#line 331 "C:/Program Files (x86)/Microchip/mplabc18/v3.46/h/p18cxxx.h"
#line 333 "C:/Program Files (x86)/Microchip/mplabc18/v3.46/h/p18cxxx.h"
#line 335 "C:/Program Files (x86)/Microchip/mplabc18/v3.46/h/p18cxxx.h"
#line 337 "C:/Program Files (x86)/Microchip/mplabc18/v3.46/h/p18cxxx.h"
#line 339 "C:/Program Files (x86)/Microchip/mplabc18/v3.46/h/p18cxxx.h"
#line 341 "C:/Program Files (x86)/Microchip/mplabc18/v3.46/h/p18cxxx.h"
#line 343 "C:/Program Files (x86)/Microchip/mplabc18/v3.46/h/p18cxxx.h"
#line 345 "C:/Program Files (x86)/Microchip/mplabc18/v3.46/h/p18cxxx.h"
#line 347 "C:/Program Files (x86)/Microchip/mplabc18/v3.46/h/p18cxxx.h"
#line 349 "C:/Program Files (x86)/Microchip/mplabc18/v3.46/h/p18cxxx.h"
#line 351 "C:/Program Files (x86)/Microchip/mplabc18/v3.46/h/p18cxxx.h"
#line 353 "C:/Program Files (x86)/Microchip/mplabc18/v3.46/h/p18cxxx.h"
#line 355 "C:/Program Files (x86)/Microchip/mplabc18/v3.46/h/p18cxxx.h"
#line 357 "C:/Program Files (x86)/Microchip/mplabc18/v3.46/h/p18cxxx.h"
#line 359 "C:/Program Files (x86)/Microchip/mplabc18/v3.46/h/p18cxxx.h"
#line 361 "C:/Program Files (x86)/Microchip/mplabc18/v3.46/h/p18cxxx.h"
#line 363 "C:/Program Files (x86)/Microchip/mplabc18/v3.46/h/p18cxxx.h"
#line 365 "C:/Program Files (x86)/Microchip/mplabc18/v3.46/h/p18cxxx.h"
#line 367 "C:/Program Files (x86)/Microchip/mplabc18/v3.46/h/p18cxxx.h"
#line 369 "C:/Program Files (x86)/Microchip/mplabc18/v3.46/h/p18cxxx.h"
#line 371 "C:/Program Files (x86)/Microchip/mplabc18/v3.46/h/p18cxxx.h"
#line 373 "C:/Program Files (x86)/Microchip/mplabc18/v3.46/h/p18cxxx.h"
#line 375 "C:/Program Files (x86)/Microchip/mplabc18/v3.46/h/p18cxxx.h"
#line 377 "C:/Program Files (x86)/Microchip/mplabc18/v3.46/h/p18cxxx.h"
#line 379 "C:/Program Files (x86)/Microchip/mplabc18/v3.46/h/p18cxxx.h"
#line 381 "C:/Program Files (x86)/Microchip/mplabc18/v3.46/h/p18cxxx.h"
#line 383 "C:/Program Files (x86)/Microchip/mplabc18/v3.46/h/p18cxxx.h"
#line 385 "C:/Program Files (x86)/Microchip/mplabc18/v3.46/h/p18cxxx.h"
#line 387 "C:/Program Files (x86)/Microchip/mplabc18/v3.46/h/p18cxxx.h"
#line 389 "C:/Program Files (x86)/Microchip/mplabc18/v3.46/h/p18cxxx.h"
#line 391 "C:/Program Files (x86)/Microchip/mplabc18/v3.46/h/p18cxxx.h"
#line 393 "C:/Program Files (x86)/Microchip/mplabc18/v3.46/h/p18cxxx.h"
#line 395 "C:/Program Files (x86)/Microchip/mplabc18/v3.46/h/p18cxxx.h"
#line 397 "C:/Program Files (x86)/Microchip/mplabc18/v3.46/h/p18cxxx.h"
#line 399 "C:/Program Files (x86)/Microchip/mplabc18/v3.46/h/p18cxxx.h"
#line 401 "C:/Program Files (x86)/Microchip/mplabc18/v3.46/h/p18cxxx.h"
#line 403 "C:/Program Files (x86)/Microchip/mplabc18/v3.46/h/p18cxxx.h"
#line 405 "C:/Program Files (x86)/Microchip/mplabc18/v3.46/h/p18cxxx.h"
#line 407 "C:/Program Files (x86)/Microchip/mplabc18/v3.46/h/p18cxxx.h"
#line 409 "C:/Program Files (x86)/Microchip/mplabc18/v3.46/h/p18cxxx.h"
#line 411 "C:/Program Files (x86)/Microchip/mplabc18/v3.46/h/p18cxxx.h"
#line 413 "C:/Program Files (x86)/Microchip/mplabc18/v3.46/h/p18cxxx.h"
#line 415 "C:/Program Files (x86)/Microchip/mplabc18/v3.46/h/p18cxxx.h"
#line 417 "C:/Program Files (x86)/Microchip/mplabc18/v3.46/h/p18cxxx.h"
#line 419 "C:/Program Files (x86)/Microchip/mplabc18/v3.46/h/p18cxxx.h"
#line 421 "C:/Program Files (x86)/Microchip/mplabc18/v3.46/h/p18cxxx.h"
#line 423 "C:/Program Files (x86)/Microchip/mplabc18/v3.46/h/p18cxxx.h"
#line 425 "C:/Program Files (x86)/Microchip/mplabc18/v3.46/h/p18cxxx.h"
#line 427 "C:/Program Files (x86)/Microchip/mplabc18/v3.46/h/p18cxxx.h"
#line 429 "C:/Program Files (x86)/Microchip/mplabc18/v3.46/h/p18cxxx.h"
#line 431 "C:/Program Files (x86)/Microchip/mplabc18/v3.46/h/p18cxxx.h"
#line 433 "C:/Program Files (x86)/Microchip/mplabc18/v3.46/h/p18cxxx.h"
#line 435 "C:/Program Files (x86)/Microchip/mplabc18/v3.46/h/p18cxxx.h"
#line 437 "C:/Program Files (x86)/Microchip/mplabc18/v3.46/h/p18cxxx.h"
#line 439 "C:/Program Files (x86)/Microchip/mplabc18/v3.46/h/p18cxxx.h"
#line 441 "C:/Program Files (x86)/Microchip/mplabc18/v3.46/h/p18cxxx.h"
#line 443 "C:/Program Files (x86)/Microchip/mplabc18/v3.46/h/p18cxxx.h"
#line 445 "C:/Program Files (x86)/Microchip/mplabc18/v3.46/h/p18cxxx.h"
#line 447 "C:/Program Files (x86)/Microchip/mplabc18/v3.46/h/p18cxxx.h"
#line 449 "C:/Program Files (x86)/Microchip/mplabc18/v3.46/h/p18cxxx.h"
#line 451 "C:/Program Files (x86)/Microchip/mplabc18/v3.46/h/p18cxxx.h"
#line 453 "C:/Program Files (x86)/Microchip/mplabc18/v3.46/h/p18cxxx.h"
#line 455 "C:/Program Files (x86)/Microchip/mplabc18/v3.46/h/p18cxxx.h"
#line 457 "C:/Program Files (x86)/Microchip/mplabc18/v3.46/h/p18cxxx.h"
#line 459 "C:/Program Files (x86)/Microchip/mplabc18/v3.46/h/p18cxxx.h"
#line 461 "C:/Program Files (x86)/Microchip/mplabc18/v3.46/h/p18cxxx.h"
#line 463 "C:/Program Files (x86)/Microchip/mplabc18/v3.46/h/p18cxxx.h"
#line 465 "C:/Program Files (x86)/Microchip/mplabc18/v3.46/h/p18cxxx.h"
#line 467 "C:/Program Files (x86)/Microchip/mplabc18/v3.46/h/p18cxxx.h"
#line 469 "C:/Program Files (x86)/Microchip/mplabc18/v3.46/h/p18cxxx.h"
#line 471 "C:/Program Files (x86)/Microchip/mplabc18/v3.46/h/p18cxxx.h"
#line 473 "C:/Program Files (x86)/Microchip/mplabc18/v3.46/h/p18cxxx.h"
#line 475 "C:/Program Files (x86)/Microchip/mplabc18/v3.46/h/p18cxxx.h"
#line 477 "C:/Program Files (x86)/Microchip/mplabc18/v3.46/h/p18cxxx.h"
#line 479 "C:/Program Files (x86)/Microchip/mplabc18/v3.46/h/p18cxxx.h"
#line 481 "C:/Program Files (x86)/Microchip/mplabc18/v3.46/h/p18cxxx.h"
#line 483 "C:/Program Files (x86)/Microchip/mplabc18/v3.46/h/p18cxxx.h"
#line 485 "C:/Program Files (x86)/Microchip/mplabc18/v3.46/h/p18cxxx.h"
#line 487 "C:/Program Files (x86)/Microchip/mplabc18/v3.46/h/p18cxxx.h"
#line 489 "C:/Program Files (x86)/Microchip/mplabc18/v3.46/h/p18cxxx.h"
#line 491 "C:/Program Files (x86)/Microchip/mplabc18/v3.46/h/p18cxxx.h"
#line 493 "C:/Program Files (x86)/Microchip/mplabc18/v3.46/h/p18cxxx.h"
#line 495 "C:/Program Files (x86)/Microchip/mplabc18/v3.46/h/p18cxxx.h"
#line 497 "C:/Program Files (x86)/Microchip/mplabc18/v3.46/h/p18cxxx.h"
#line 499 "C:/Program Files (x86)/Microchip/mplabc18/v3.46/h/p18cxxx.h"
#line 501 "C:/Program Files (x86)/Microchip/mplabc18/v3.46/h/p18cxxx.h"
#line 503 "C:/Program Files (x86)/Microchip/mplabc18/v3.46/h/p18cxxx.h"
#line 505 "C:/Program Files (x86)/Microchip/mplabc18/v3.46/h/p18cxxx.h"
#line 507 "C:/Program Files (x86)/Microchip/mplabc18/v3.46/h/p18cxxx.h"
#line 509 "C:/Program Files (x86)/Microchip/mplabc18/v3.46/h/p18cxxx.h"
#line 511 "C:/Program Files (x86)/Microchip/mplabc18/v3.46/h/p18cxxx.h"
#line 513 "C:/Program Files (x86)/Microchip/mplabc18/v3.46/h/p18cxxx.h"
#line 515 "C:/Program Files (x86)/Microchip/mplabc18/v3.46/h/p18cxxx.h"
#line 517 "C:/Program Files (x86)/Microchip/mplabc18/v3.46/h/p18cxxx.h"
#line 519 "C:/Program Files (x86)/Microchip/mplabc18/v3.46/h/p18cxxx.h"
#line 521 "C:/Program Files (x86)/Microchip/mplabc18/v3.46/h/p18cxxx.h"
#line 523 "C:/Program Files (x86)/Microchip/mplabc18/v3.46/h/p18cxxx.h"
#line 525 "C:/Program Files (x86)/Microchip/mplabc18/v3.46/h/p18cxxx.h"
#line 527 "C:/Program Files (x86)/Microchip/mplabc18/v3.46/h/p18cxxx.h"
#line 529 "C:/Program Files (x86)/Microchip/mplabc18/v3.46/h/p18cxxx.h"
#line 531 "C:/Program Files (x86)/Microchip/mplabc18/v3.46/h/p18cxxx.h"
#line 533 "C:/Program Files (x86)/Microchip/mplabc18/v3.46/h/p18cxxx.h"
#line 535 "C:/Program Files (x86)/Microchip/mplabc18/v3.46/h/p18cxxx.h"
#line 537 "C:/Program Files (x86)/Microchip/mplabc18/v3.46/h/p18cxxx.h"
#line 539 "C:/Program Files (x86)/Microchip/mplabc18/v3.46/h/p18cxxx.h"
#line 541 "C:/Program Files (x86)/Microchip/mplabc18/v3.46/h/p18cxxx.h"
#line 543 "C:/Program Files (x86)/Microchip/mplabc18/v3.46/h/p18cxxx.h"
#line 545 "C:/Program Files (x86)/Microchip/mplabc18/v3.46/h/p18cxxx.h"
#line 547 "C:/Program Files (x86)/Microchip/mplabc18/v3.46/h/p18cxxx.h"
#line 549 "C:/Program Files (x86)/Microchip/mplabc18/v3.46/h/p18cxxx.h"
#line 551 "C:/Program Files (x86)/Microchip/mplabc18/v3.46/h/p18cxxx.h"
#line 553 "C:/Program Files (x86)/Microchip/mplabc18/v3.46/h/p18cxxx.h"
#line 555 "C:/Program Files (x86)/Microchip/mplabc18/v3.46/h/p18cxxx.h"
#line 557 "C:/Program Files (x86)/Microchip/mplabc18/v3.46/h/p18cxxx.h"
#line 559 "C:/Program Files (x86)/Microchip/mplabc18/v3.46/h/p18cxxx.h"
#line 561 "C:/Program Files (x86)/Microchip/mplabc18/v3.46/h/p18cxxx.h"
#line 563 "C:/Program Files (x86)/Microchip/mplabc18/v3.46/h/p18cxxx.h"
#line 565 "C:/Program Files (x86)/Microchip/mplabc18/v3.46/h/p18cxxx.h"
#line 567 "C:/Program Files (x86)/Microchip/mplabc18/v3.46/h/p18cxxx.h"
#line 569 "C:/Program Files (x86)/Microchip/mplabc18/v3.46/h/p18cxxx.h"
#line 571 "C:/Program Files (x86)/Microchip/mplabc18/v3.46/h/p18cxxx.h"
#line 573 "C:/Program Files (x86)/Microchip/mplabc18/v3.46/h/p18cxxx.h"
#line 575 "C:/Program Files (x86)/Microchip/mplabc18/v3.46/h/p18cxxx.h"
#line 577 "C:/Program Files (x86)/Microchip/mplabc18/v3.46/h/p18cxxx.h"
#line 579 "C:/Program Files (x86)/Microchip/mplabc18/v3.46/h/p18cxxx.h"
#line 581 "C:/Program Files (x86)/Microchip/mplabc18/v3.46/h/p18cxxx.h"
#line 583 "C:/Program Files (x86)/Microchip/mplabc18/v3.46/h/p18cxxx.h"
#line 585 "C:/Program Files (x86)/Microchip/mplabc18/v3.46/h/p18cxxx.h"
#line 587 "C:/Program Files (x86)/Microchip/mplabc18/v3.46/h/p18cxxx.h"
#line 589 "C:/Program Files (x86)/Microchip/mplabc18/v3.46/h/p18cxxx.h"
#line 591 "C:/Program Files (x86)/Microchip/mplabc18/v3.46/h/p18cxxx.h"
#line 593 "C:/Program Files (x86)/Microchip/mplabc18/v3.46/h/p18cxxx.h"
#line 595 "C:/Program Files (x86)/Microchip/mplabc18/v3.46/h/p18cxxx.h"
#line 597 "C:/Program Files (x86)/Microchip/mplabc18/v3.46/h/p18cxxx.h"

#line 599 "C:/Program Files (x86)/Microchip/mplabc18/v3.46/h/p18cxxx.h"
#line 53 "../../Microchip/Include/Compiler.h"

#line 55 "../../Microchip/Include/Compiler.h"
#line 56 "../../Microchip/Include/Compiler.h"
#line 60 "../../Microchip/Include/Compiler.h"
#line 64 "../../Microchip/Include/Compiler.h"
#line 68 "../../Microchip/Include/Compiler.h"
#line 72 "../../Microchip/Include/Compiler.h"
#line 77 "../../Microchip/Include/Compiler.h"
#line 79 "../../Microchip/Include/Compiler.h"

#line 1 "./HardwareProfile.h"

#line 45 "./HardwareProfile.h"
 

 
#line 80 "../../Microchip/Include/Compiler.h"

#line 1 "C:/Program Files (x86)/Microchip/mplabc18/v3.46/h/stdio.h"

#line 3 "C:/Program Files (x86)/Microchip/mplabc18/v3.46/h/stdio.h"

#line 1 "C:/Program Files (x86)/Microchip/mplabc18/v3.46/h/stdarg.h"
 


#line 5 "C:/Program Files (x86)/Microchip/mplabc18/v3.46/h/stdarg.h"

typedef void* va_list;
#line 8 "C:/Program Files (x86)/Microchip/mplabc18/v3.46/h/stdarg.h"
#line 9 "C:/Program Files (x86)/Microchip/mplabc18/v3.46/h/stdarg.h"
#line 10 "C:/Program Files (x86)/Microchip/mplabc18/v3.46/h/stdarg.h"
#line 11 "C:/Program Files (x86)/Microchip/mplabc18/v3.46/h/stdarg.h"
#line 12 "C:/Program Files (x86)/Microchip/mplabc18/v3.46/h/stdarg.h"
#line 4 "C:/Program Files (x86)/Microchip/mplabc18/v3.46/h/stdio.h"

#line 1 "C:/Program Files (x86)/Microchip/mplabc18/v3.46/h/stddef.h"
 

#line 4 "C:/Program Files (x86)/Microchip/mplabc18/v3.46/h/stddef.h"

typedef unsigned char wchar_t;


#line 10 "C:/Program Files (x86)/Microchip/mplabc18/v3.46/h/stddef.h"
 
typedef signed short int ptrdiff_t;
typedef signed short int ptrdiffram_t;
typedef signed short long int ptrdiffrom_t;


#line 20 "C:/Program Files (x86)/Microchip/mplabc18/v3.46/h/stddef.h"
 
typedef unsigned short int size_t;
typedef unsigned short int sizeram_t;
typedef unsigned short long int sizerom_t;


#line 34 "C:/Program Files (x86)/Microchip/mplabc18/v3.46/h/stddef.h"
 
#line 36 "C:/Program Files (x86)/Microchip/mplabc18/v3.46/h/stddef.h"


#line 41 "C:/Program Files (x86)/Microchip/mplabc18/v3.46/h/stddef.h"
 
#line 43 "C:/Program Files (x86)/Microchip/mplabc18/v3.46/h/stddef.h"

#line 45 "C:/Program Files (x86)/Microchip/mplabc18/v3.46/h/stddef.h"
#line 5 "C:/Program Files (x86)/Microchip/mplabc18/v3.46/h/stdio.h"



#line 9 "C:/Program Files (x86)/Microchip/mplabc18/v3.46/h/stdio.h"
 
#line 11 "C:/Program Files (x86)/Microchip/mplabc18/v3.46/h/stdio.h"

#line 13 "C:/Program Files (x86)/Microchip/mplabc18/v3.46/h/stdio.h"


typedef unsigned char FILE;

 
#line 19 "C:/Program Files (x86)/Microchip/mplabc18/v3.46/h/stdio.h"
#line 20 "C:/Program Files (x86)/Microchip/mplabc18/v3.46/h/stdio.h"

extern FILE *stderr;
extern FILE *stdout;


int putc (auto char c, auto FILE *f);
int vsprintf (auto char *buf, auto const far  rom char *fmt, auto va_list ap);
int vprintf (auto const far  rom char *fmt, auto va_list ap);
int sprintf (auto char *buf, auto const far  rom char *fmt, ...);
int printf (auto const far  rom char *fmt, ...);
int fprintf (auto FILE *f, auto const far  rom char *fmt, ...);
int vfprintf (auto FILE *f, auto const far  rom char *fmt, auto va_list ap);
int puts (auto const far  rom char *s);
int fputs (auto const far  rom char *s, auto FILE *f);

#line 36 "C:/Program Files (x86)/Microchip/mplabc18/v3.46/h/stdio.h"
#line 81 "../../Microchip/Include/Compiler.h"

#line 1 "C:/Program Files (x86)/Microchip/mplabc18/v3.46/h/stdlib.h"
 

#line 4 "C:/Program Files (x86)/Microchip/mplabc18/v3.46/h/stdlib.h"

#line 6 "C:/Program Files (x86)/Microchip/mplabc18/v3.46/h/stdlib.h"

#line 9 "C:/Program Files (x86)/Microchip/mplabc18/v3.46/h/stdlib.h"
 
 

#line 16 "C:/Program Files (x86)/Microchip/mplabc18/v3.46/h/stdlib.h"
 
double atof (const auto char *s);

#line 28 "C:/Program Files (x86)/Microchip/mplabc18/v3.46/h/stdlib.h"
 
signed char atob (const auto char *s);


#line 39 "C:/Program Files (x86)/Microchip/mplabc18/v3.46/h/stdlib.h"
 
int atoi (const auto char *s);

#line 47 "C:/Program Files (x86)/Microchip/mplabc18/v3.46/h/stdlib.h"
 
long atol (const auto char *s);

#line 58 "C:/Program Files (x86)/Microchip/mplabc18/v3.46/h/stdlib.h"
 
unsigned long atoul (const auto char *s);


#line 71 "C:/Program Files (x86)/Microchip/mplabc18/v3.46/h/stdlib.h"
 
char *btoa (auto signed char value, auto char *s);

#line 83 "C:/Program Files (x86)/Microchip/mplabc18/v3.46/h/stdlib.h"
 
char *itoa (auto int value, auto char *s);

#line 95 "C:/Program Files (x86)/Microchip/mplabc18/v3.46/h/stdlib.h"
 
char *ltoa (auto long value, auto char *s);

#line 107 "C:/Program Files (x86)/Microchip/mplabc18/v3.46/h/stdlib.h"
 
char *ultoa (auto unsigned long value, auto char *s);
 


#line 112 "C:/Program Files (x86)/Microchip/mplabc18/v3.46/h/stdlib.h"
 
 

#line 116 "C:/Program Files (x86)/Microchip/mplabc18/v3.46/h/stdlib.h"
 
#line 118 "C:/Program Files (x86)/Microchip/mplabc18/v3.46/h/stdlib.h"


#line 124 "C:/Program Files (x86)/Microchip/mplabc18/v3.46/h/stdlib.h"
 
int rand (void);

#line 136 "C:/Program Files (x86)/Microchip/mplabc18/v3.46/h/stdlib.h"
 
void srand (auto unsigned int seed);
 
#line 140 "C:/Program Files (x86)/Microchip/mplabc18/v3.46/h/stdlib.h"
#line 149 "C:/Program Files (x86)/Microchip/mplabc18/v3.46/h/stdlib.h"

#line 151 "C:/Program Files (x86)/Microchip/mplabc18/v3.46/h/stdlib.h"
#line 82 "../../Microchip/Include/Compiler.h"

#line 1 "C:/Program Files (x86)/Microchip/mplabc18/v3.46/h/string.h"

#line 3 "C:/Program Files (x86)/Microchip/mplabc18/v3.46/h/string.h"

#line 7 "C:/Program Files (x86)/Microchip/mplabc18/v3.46/h/string.h"


#line 20 "C:/Program Files (x86)/Microchip/mplabc18/v3.46/h/string.h"
 
#line 22 "C:/Program Files (x86)/Microchip/mplabc18/v3.46/h/string.h"


#line 25 "C:/Program Files (x86)/Microchip/mplabc18/v3.46/h/string.h"
 
#line 27 "C:/Program Files (x86)/Microchip/mplabc18/v3.46/h/string.h"

 

#line 39 "C:/Program Files (x86)/Microchip/mplabc18/v3.46/h/string.h"
 
void *memcpy (auto void *s1, auto const void *s2, auto size_t n);


#line 55 "C:/Program Files (x86)/Microchip/mplabc18/v3.46/h/string.h"
 
void *memmove (auto void *s1, auto const void *s2, auto size_t n);


#line 67 "C:/Program Files (x86)/Microchip/mplabc18/v3.46/h/string.h"
 
char *strcpy (auto char *s1, auto const char *s2);


#line 83 "C:/Program Files (x86)/Microchip/mplabc18/v3.46/h/string.h"
 
char *strncpy (auto char *s1, auto const char *s2, auto size_t n);


#line 97 "C:/Program Files (x86)/Microchip/mplabc18/v3.46/h/string.h"
 
char *strcat (auto char *s1, auto const char *s2);


#line 113 "C:/Program Files (x86)/Microchip/mplabc18/v3.46/h/string.h"
 
char *strncat (auto char *s1, auto const char *s2, auto size_t n);


#line 128 "C:/Program Files (x86)/Microchip/mplabc18/v3.46/h/string.h"
 
signed char memcmp (auto const void *s1, auto const void *s2, auto size_t n);


#line 141 "C:/Program Files (x86)/Microchip/mplabc18/v3.46/h/string.h"
 
signed char strcmp (auto const char *s1, auto const char *s2);


#line 147 "C:/Program Files (x86)/Microchip/mplabc18/v3.46/h/string.h"
 


#line 161 "C:/Program Files (x86)/Microchip/mplabc18/v3.46/h/string.h"
 
signed char strncmp (auto const char *s1, auto const char *s2, auto size_t n);


#line 167 "C:/Program Files (x86)/Microchip/mplabc18/v3.46/h/string.h"
 


#line 183 "C:/Program Files (x86)/Microchip/mplabc18/v3.46/h/string.h"
 
void *memchr (auto const void *s, auto unsigned char c, auto size_t n);


#line 199 "C:/Program Files (x86)/Microchip/mplabc18/v3.46/h/string.h"
 
char *strchr (auto const char *s, auto unsigned char c);


#line 210 "C:/Program Files (x86)/Microchip/mplabc18/v3.46/h/string.h"
 
size_t strcspn (auto const char *s1, auto const char *s2);


#line 222 "C:/Program Files (x86)/Microchip/mplabc18/v3.46/h/string.h"
 
char *strpbrk (auto const char *s1, auto const char *s2);


#line 238 "C:/Program Files (x86)/Microchip/mplabc18/v3.46/h/string.h"
 
char *strrchr (auto const char *s, auto unsigned char c);


#line 249 "C:/Program Files (x86)/Microchip/mplabc18/v3.46/h/string.h"
 
size_t strspn (auto const char *s1, auto const char *s2);


#line 262 "C:/Program Files (x86)/Microchip/mplabc18/v3.46/h/string.h"
 
char *strstr (auto const char *s1, auto const char *s2);


#line 305 "C:/Program Files (x86)/Microchip/mplabc18/v3.46/h/string.h"
 
char *strtok (auto char *s1, auto const char *s2);


#line 321 "C:/Program Files (x86)/Microchip/mplabc18/v3.46/h/string.h"
 
void *memset (auto void *s, auto unsigned char c, auto size_t n);


#line 339 "C:/Program Files (x86)/Microchip/mplabc18/v3.46/h/string.h"
 
#line 341 "C:/Program Files (x86)/Microchip/mplabc18/v3.46/h/string.h"


#line 349 "C:/Program Files (x86)/Microchip/mplabc18/v3.46/h/string.h"
 
size_t strlen (auto const char *s);


#line 358 "C:/Program Files (x86)/Microchip/mplabc18/v3.46/h/string.h"
 
char *strupr (auto char *s);


#line 367 "C:/Program Files (x86)/Microchip/mplabc18/v3.46/h/string.h"
 
char *strlwr (auto char *s);



 

#line 379 "C:/Program Files (x86)/Microchip/mplabc18/v3.46/h/string.h"
 
far  rom void *memcpypgm (auto far  rom void *s1, auto const far  rom void *s2, auto sizerom_t n);


#line 389 "C:/Program Files (x86)/Microchip/mplabc18/v3.46/h/string.h"
 
void *memcpypgm2ram (auto void *s1, auto const far  rom void *s2, auto sizeram_t n);


#line 398 "C:/Program Files (x86)/Microchip/mplabc18/v3.46/h/string.h"
 
far  rom void *memcpyram2pgm (auto far  rom void *s1, auto const void *s2, auto sizeram_t n);


#line 407 "C:/Program Files (x86)/Microchip/mplabc18/v3.46/h/string.h"
 
far  rom void *memmovepgm (auto far  rom void *s1, auto const far  rom void *s2, auto sizerom_t n);


#line 417 "C:/Program Files (x86)/Microchip/mplabc18/v3.46/h/string.h"
 
void *memmovepgm2ram (auto void *s1, auto const far  rom void *s2, auto sizeram_t n);


#line 426 "C:/Program Files (x86)/Microchip/mplabc18/v3.46/h/string.h"
 
far  rom void *memmoveram2pgm (auto far  rom void *s1, auto const void *s2, auto sizeram_t n);


#line 434 "C:/Program Files (x86)/Microchip/mplabc18/v3.46/h/string.h"
 
far  rom char *strcpypgm (auto far  rom char *s1, auto const far  rom char *s2);


#line 443 "C:/Program Files (x86)/Microchip/mplabc18/v3.46/h/string.h"
 
char *strcpypgm2ram (auto char *s1, auto const far  rom char *s2);


#line 451 "C:/Program Files (x86)/Microchip/mplabc18/v3.46/h/string.h"
 
far  rom char *strcpyram2pgm (auto far  rom char *s1, auto const char *s2);


#line 460 "C:/Program Files (x86)/Microchip/mplabc18/v3.46/h/string.h"
 
far  rom char *strncpypgm (auto far  rom char *s1, auto const far  rom char *s2, auto sizerom_t n);


#line 470 "C:/Program Files (x86)/Microchip/mplabc18/v3.46/h/string.h"
 
char *strncpypgm2ram (auto char *s1, auto const far  rom char *s2, auto sizeram_t n);


#line 479 "C:/Program Files (x86)/Microchip/mplabc18/v3.46/h/string.h"
 
far  rom char *strncpyram2pgm (auto far  rom char *s1, auto const char *s2, auto sizeram_t n);


#line 487 "C:/Program Files (x86)/Microchip/mplabc18/v3.46/h/string.h"
 
far  rom char *strcatpgm (auto far  rom char *s1, auto const far  rom char *s2);


#line 496 "C:/Program Files (x86)/Microchip/mplabc18/v3.46/h/string.h"
 
char *strcatpgm2ram (auto char *s1, auto const far  rom char *s2);


#line 504 "C:/Program Files (x86)/Microchip/mplabc18/v3.46/h/string.h"
 
far  rom char *strcatram2pgm (auto far  rom char *s1, auto const char *s2);


#line 513 "C:/Program Files (x86)/Microchip/mplabc18/v3.46/h/string.h"
 
far  rom char *strncatpgm (auto far  rom char *s1, auto const far  rom char *s2, auto sizerom_t n);


#line 523 "C:/Program Files (x86)/Microchip/mplabc18/v3.46/h/string.h"
 
char *strncatpgm2ram (auto char *s1, auto const far  rom char *s2, auto sizeram_t n);


#line 532 "C:/Program Files (x86)/Microchip/mplabc18/v3.46/h/string.h"
 
far  rom char *strncatram2pgm (auto far  rom char *s1, auto const char *s2, auto sizeram_t n);


#line 541 "C:/Program Files (x86)/Microchip/mplabc18/v3.46/h/string.h"
 
signed char memcmppgm (auto far  rom void *s1, auto const far  rom void *s2, auto sizerom_t n);


#line 551 "C:/Program Files (x86)/Microchip/mplabc18/v3.46/h/string.h"
 
signed char memcmppgm2ram (auto void *s1, auto const far  rom void *s2, auto sizeram_t n);


#line 560 "C:/Program Files (x86)/Microchip/mplabc18/v3.46/h/string.h"
 
signed char memcmpram2pgm (auto far  rom void *s1, auto const void *s2, auto sizeram_t n);


#line 568 "C:/Program Files (x86)/Microchip/mplabc18/v3.46/h/string.h"
 
signed char strcmppgm (auto const far  rom char *s1, auto const far  rom char *s2);


#line 577 "C:/Program Files (x86)/Microchip/mplabc18/v3.46/h/string.h"
 
signed char strcmppgm2ram (auto const char *s1, auto const far  rom char *s2);


#line 585 "C:/Program Files (x86)/Microchip/mplabc18/v3.46/h/string.h"
 
signed char strcmpram2pgm (auto const far  rom char *s1, auto const char *s2);


#line 594 "C:/Program Files (x86)/Microchip/mplabc18/v3.46/h/string.h"
 
signed char strncmppgm (auto const far  rom char *s1, auto const far  rom char *s2, auto sizerom_t n);


#line 604 "C:/Program Files (x86)/Microchip/mplabc18/v3.46/h/string.h"
 
signed char strncmppgm2ram (auto char *s1, auto const far  rom char *s2, auto sizeram_t n);


#line 613 "C:/Program Files (x86)/Microchip/mplabc18/v3.46/h/string.h"
 
signed char strncmpram2pgm (auto far  rom char *s1, auto const char *s2, auto sizeram_t n);


#line 622 "C:/Program Files (x86)/Microchip/mplabc18/v3.46/h/string.h"
 
far  rom char *memchrpgm (auto const far  rom char *s, auto const unsigned char c, auto sizerom_t n);


#line 631 "C:/Program Files (x86)/Microchip/mplabc18/v3.46/h/string.h"
 
far  rom char *strchrpgm (auto const far  rom char *s, auto unsigned char c);


#line 639 "C:/Program Files (x86)/Microchip/mplabc18/v3.46/h/string.h"
 
sizerom_t strcspnpgm (auto const far  rom char *s1, auto const far  rom char *s2);


#line 647 "C:/Program Files (x86)/Microchip/mplabc18/v3.46/h/string.h"
 
sizerom_t strcspnpgmram (auto const far  rom char *s1, auto const char *s2);


#line 655 "C:/Program Files (x86)/Microchip/mplabc18/v3.46/h/string.h"
 
sizeram_t strcspnrampgm (auto const char *s1, auto const far  rom char *s2);


#line 663 "C:/Program Files (x86)/Microchip/mplabc18/v3.46/h/string.h"
 
far  rom char *strpbrkpgm (auto const far  rom char *s1, auto const far  rom char *s2);


#line 671 "C:/Program Files (x86)/Microchip/mplabc18/v3.46/h/string.h"
 
far  rom char *strpbrkpgmram (auto const far  rom char *s1, auto const char *s2);


#line 679 "C:/Program Files (x86)/Microchip/mplabc18/v3.46/h/string.h"
 
char *strpbrkrampgm (auto const char *s1, auto const far  rom char *s2);


#line 688 "C:/Program Files (x86)/Microchip/mplabc18/v3.46/h/string.h"
 
 


#line 696 "C:/Program Files (x86)/Microchip/mplabc18/v3.46/h/string.h"
 
sizerom_t strspnpgm (auto const far  rom char *s1, auto const far  rom char *s2);


#line 704 "C:/Program Files (x86)/Microchip/mplabc18/v3.46/h/string.h"
 
sizerom_t strspnpgmram (auto const far  rom char *s1, auto const char *s2);


#line 712 "C:/Program Files (x86)/Microchip/mplabc18/v3.46/h/string.h"
 
sizeram_t strspnrampgm (auto const char *s1, auto const far  rom char *s2);


#line 720 "C:/Program Files (x86)/Microchip/mplabc18/v3.46/h/string.h"
 
far  rom char *strstrpgm (auto const far  rom char *s1, auto const far  rom char *s2);


#line 729 "C:/Program Files (x86)/Microchip/mplabc18/v3.46/h/string.h"
 
far  rom char *strstrpgmram (auto const far  rom char *s1, auto const char *s2);


#line 737 "C:/Program Files (x86)/Microchip/mplabc18/v3.46/h/string.h"
 
char *strstrrampgm (auto const char *s1, auto const far  rom char *s2);


#line 745 "C:/Program Files (x86)/Microchip/mplabc18/v3.46/h/string.h"
 
far  rom char *strtokpgm (auto far  rom char *s1, auto const far  rom char *s2);


#line 754 "C:/Program Files (x86)/Microchip/mplabc18/v3.46/h/string.h"
 
char *strtokpgmram (auto char *s1, auto const far  rom char *s2);


#line 762 "C:/Program Files (x86)/Microchip/mplabc18/v3.46/h/string.h"
 
far  rom char *strtokrampgm (auto far  rom char *s1, auto const char *s2);


#line 771 "C:/Program Files (x86)/Microchip/mplabc18/v3.46/h/string.h"
 
far  rom void *memsetpgm (auto far  rom void *s, auto unsigned char c, auto sizerom_t n);


#line 778 "C:/Program Files (x86)/Microchip/mplabc18/v3.46/h/string.h"
 
far  rom char *struprpgm (auto far  rom char *s);


#line 785 "C:/Program Files (x86)/Microchip/mplabc18/v3.46/h/string.h"
 
far  rom char *strlwrpgm (auto far  rom char *s);


#line 792 "C:/Program Files (x86)/Microchip/mplabc18/v3.46/h/string.h"
 
sizerom_t strlenpgm (auto const far  rom char *s);

#line 796 "C:/Program Files (x86)/Microchip/mplabc18/v3.46/h/string.h"

#line 798 "C:/Program Files (x86)/Microchip/mplabc18/v3.46/h/string.h"

#line 805 "C:/Program Files (x86)/Microchip/mplabc18/v3.46/h/string.h"
#line 814 "C:/Program Files (x86)/Microchip/mplabc18/v3.46/h/string.h"

#line 816 "C:/Program Files (x86)/Microchip/mplabc18/v3.46/h/string.h"
#line 83 "../../Microchip/Include/Compiler.h"


#line 86 "../../Microchip/Include/Compiler.h"
#line 87 "../../Microchip/Include/Compiler.h"
#line 88 "../../Microchip/Include/Compiler.h"
#line 89 "../../Microchip/Include/Compiler.h"

#line 91 "../../Microchip/Include/Compiler.h"
#line 92 "../../Microchip/Include/Compiler.h"

#line 94 "../../Microchip/Include/Compiler.h"
#line 103 "../../Microchip/Include/Compiler.h"

#line 105 "../../Microchip/Include/Compiler.h"
#line 114 "../../Microchip/Include/Compiler.h"
#line 117 "../../Microchip/Include/Compiler.h"
#line 128 "../../Microchip/Include/Compiler.h"
#line 130 "../../Microchip/Include/Compiler.h"
#line 133 "../../Microchip/Include/Compiler.h"



#line 137 "../../Microchip/Include/Compiler.h"
#line 48 "ConfigFuses.c"


 
#line 52 "ConfigFuses.c"
#line 70 "ConfigFuses.c"
#line 74 "ConfigFuses.c"
#line 80 "ConfigFuses.c"
#line 85 "ConfigFuses.c"
#line 88 "ConfigFuses.c"

#line 90 "ConfigFuses.c"
